<?xml version="1.0" encoding="utf-8"?>
<!-- Generator: Adobe Illustrator 19.2.1, SVG Export Plug-In . SVG Version: 6.00 Build 0)  -->
<svg version="1.1" id="Layer_1" xmlns="http://www.w3.org/2000/svg" xmlns:xlink="http://www.w3.org/1999/xlink" x="0px" y="0px"
	 viewBox="0 0 52 52" style="enable-background:new 0 0 52 52;" xml:space="preserve">
<style type="text/css">
	.st0{fill:url(#SVGID_1_);}
	.st1{fill:#DBAD89;}
	.st2{fill:#58372F;}
	.st3{fill:#1B3663;}
	.st4{fill:#FFFFFF;}
	.st5{fill:url(#SVGID_2_);}
	.st6{fill:url(#SVGID_3_);}
	.st7{fill:#0F71AC;}
	.st8{fill:#61AADD;}
	.st9{fill:#FDFEFF;}
	.st10{fill:url(#SVGID_4_);}
	.st11{fill:#912C1E;}
	.st12{fill:url(#SVGID_5_);}
	.st13{fill:#0A466F;}
	.st14{fill:url(#SVGID_6_);}
	.st15{fill:#502D66;}
	.st16{fill:#596269;}
</style>
<g>
	<g>
		<path class="st4" d="M44.6,0.4H7.4c-3.9,0-7.1,3.2-7.1,7.1v37.1c0,3.9,3.2,7.1,7.1,7.1h37.1c3.9,0,7.1-3.2,7.1-7.1V7.4
			C51.6,3.5,48.5,0.4,44.6,0.4z M13.7,9.5c2.1,0,3.8,1.7,3.8,3.8s-1.7,3.8-3.8,3.8s-3.8-1.7-3.8-3.8S11.6,9.5,13.7,9.5z M17.5,42.5
			H9.8V20.9h7.7V42.5z M42.2,42.5h-6.6V30.7c0,0,0-4.8-3.5-4.8c-1.9,0-3.1,1.2-3.8,2.3v14.2h-7.7V20.9h7.7v1.8
			c1.1-1.4,3.1-2.8,6.5-2.8c7.3,0,7.4,7.4,7.4,7.4V42.5z"/>
	</g>
</g>
</svg>
