<?xml version="1.0" encoding="utf-8"?>
<!-- Generator: Adobe Illustrator 20.0.0, SVG Export Plug-In . SVG Version: 6.00 Build 0)  -->
<svg version="1.1" id="Layer_1" xmlns="http://www.w3.org/2000/svg" xmlns:xlink="http://www.w3.org/1999/xlink" x="0px" y="0px"
	 viewBox="0 0 42 36.5" style="enable-background:new 0 0 42 36.5;" xml:space="preserve">
<style type="text/css">
	.st0{fill:#313944;}
</style>
<path class="st0" d="M42,20c0,1,0,1.8,0,2.8c-0.9,0.1-1.7,0.2-2.7,0.3c0,4.5,0,8.8,0,13.4c-6.3,0-12.3,0-18.6,0c0-4.3,0-8.7,0-13.3
	c-5.1,0-10,0-15.1,0c0,4.4,0,8.8,0,13.3c-1.1,0-1.9,0-2.9,0c0-4.5,0-8.8,0-13.3C1.7,23,1,22.9,0,22.8C0,22,0,21.1,0,20
	C13.9,20,27.9,20,42,20z M36.3,30.4c-4.3,0-8.6,0-13,0c0,1,0,1.9,0,2.9c4.4,0,8.7,0,13,0C36.3,32.3,36.3,31.4,36.3,30.4z M36.2,27.6
	c0-1,0-1.9,0-3c-4.4,0-8.7,0-13,0c0,1.1,0,1.9,0,3C27.5,27.6,31.7,27.6,36.2,27.6z"/>
<path class="st0" d="M20.8,13.4c-2.6,0-5.2,0-7.7,0c-1.9,0-2.9-0.8-2.9-2.8c0-2.6,0-5.1,0-7.7C10.1,1,11,0,13,0c5.3,0,10.6,0,15.9,0
	c2,0,2.9,1,2.9,2.9c0,2.6,0,5.1,0,7.7c0,2-1,2.8-2.9,2.8C26.1,13.4,23.5,13.4,20.8,13.4z M29.5,1.9c-5.7,0-11.3,0-17,0
	c0,2.9,0,5.8,0,8.7c5.7,0,11.3,0,17,0C29.5,7.7,29.5,4.8,29.5,1.9z"/>
<path class="st0" d="M6.4,23.8c1.6,0,3.1,0,4.7,0c0,4.2,0,8.4,0,12.6c-1.6,0-3,0-4.7,0C6.4,32.3,6.4,28.2,6.4,23.8z"/>
<path class="st0" d="M19.6,14.1c0.7,0,1.3,0,2,0c0.1,1,0.2,1.9,0.3,3.1c1.3,0,2.7,0,4,0c0.4,0,0.8,0.4,1.1,0.6
	c-0.4,0.3-0.8,0.8-1.2,0.8c-3.5,0.1-7,0.1-10.5,0c-0.4,0-0.8-0.5-1.1-0.8c0.4-0.2,0.7-0.6,1.1-0.6c1.3-0.1,2.5,0,3.9,0
	C19.4,16.1,19.5,15.1,19.6,14.1z"/>
</svg>
