<?xml version="1.0" encoding="UTF-8" standalone="no"?>
<svg width="23px" height="20px" viewBox="0 0 23 20" version="1.1" xmlns="http://www.w3.org/2000/svg" xmlns:xlink="http://www.w3.org/1999/xlink">
    <!-- Generator: Sketch 3.6.1 (26313) - http://www.bohemiancoding.com/sketch -->
    <title>icn_category_ljubimci_default</title>
    <desc>Created with Sketch.</desc>
    <defs></defs>
    <g id="Styleguide" stroke="none" stroke-width="1" fill="none" fill-rule="evenodd">
        <g id="04.02.---UI-elements" transform="translate(-438.000000, -578.000000)" fill="#313943">
            <g id="icn_category_ljubimci_default" transform="translate(438.000000, 578.000000)">
                <path d="M21.62,6.81818182 C21.36608,6.81818182 21.16,7.02181818 21.16,7.27272727 C21.16,7.87636364 20.75888,8.38272727 20.2078,8.56272727 C19.88212,4.54818182 15.90036,1.36363636 11.04,1.36363636 C10.37024,1.36363636 9.68576,1.43090909 9.00036,1.56363636 C8.3168,0.590909091 7.18796,0 5.98,0 C5.33692,0 4.70028,0.17 4.13908,0.490909091 C3.9974,0.571818182 3.91,0.721818182 3.91,0.883636364 C3.91,1.04636364 3.9974,1.19636364 4.13908,1.27727273 C4.784,1.64636364 5.25412,2.26545455 5.43536,2.97 C3.6202,4.14363636 2.38464,5.84818182 1.98352,7.72727273 L0.46,7.72727273 C0.20516,7.72727273 0,7.93090909 0,8.18181818 L0,11.8181818 C0,12.0690909 0.20516,12.2727273 0.46,12.2727273 L2.6588,12.2727273 C3.54292,13.9209091 5.0554,15.2127273 6.9,15.9918182 L6.9,18.6363636 C6.9,18.8872727 7.10608,19.0909091 7.36,19.0909091 C7.61392,19.0909091 7.82,18.8872727 7.82,18.6363636 L7.82,16.3327273 C8.82924,16.6481818 9.91576,16.8181818 11.04,16.8181818 C12.17436,16.8181818 13.25628,16.6363636 14.26,16.32 L14.26,18.6363636 C14.26,18.8872727 14.46608,19.0909091 14.72,19.0909091 C14.97392,19.0909091 15.18,18.8872727 15.18,18.6363636 L15.18,15.9827273 C18.03844,14.7654545 20.03668,12.3363636 20.21516,9.50181818 C21.27592,9.3 22.08,8.37909091 22.08,7.27272727 C22.08,7.02181818 21.87392,6.81818182 21.62,6.81818182 L21.62,6.81818182 Z M5.52,8.63636364 C5.01308,8.63636364 4.6,8.22818182 4.6,7.72727273 C4.6,7.22636364 5.01308,6.81818182 5.52,6.81818182 C6.02692,6.81818182 6.44,7.22636364 6.44,7.72727273 C6.44,8.22818182 6.02692,8.63636364 5.52,8.63636364 L5.52,8.63636364 Z M15.548,5.72727273 C15.45784,5.84636364 15.31892,5.90909091 15.17908,5.90909091 C15.0834,5.90909091 14.98588,5.88 14.904,5.81818182 C13.67396,4.90545455 12.14492,4.45909091 10.61036,4.56 C10.36012,4.57636364 10.13748,4.38727273 10.12092,4.13636364 C10.10436,3.88636364 10.29572,3.66909091 10.54964,3.65272727 C12.30868,3.53818182 14.05116,4.04818182 15.456,5.09090909 C15.65932,5.24181818 15.6998,5.52727273 15.548,5.72727273 L15.548,5.72727273 Z" id="Imported-Layers-Copy-7"></path>
            </g>
        </g>
    </g>
</svg>