<?xml version="1.0" encoding="utf-8"?>
<!-- Generator: Adobe Illustrator 20.0.0, SVG Export Plug-In . SVG Version: 6.00 Build 0)  -->
<svg version="1.1" id="Layer_1" xmlns="http://www.w3.org/2000/svg" xmlns:xlink="http://www.w3.org/1999/xlink" x="0px" y="0px"
	 viewBox="0 0 40 40" style="enable-background:new 0 0 40 40;" xml:space="preserve">
<style type="text/css">
	.st0{fill:#313944;}
</style>
<path class="st0" d="M20,20.4c2.2,0.2,4,0.9,5.6,2.2c3.2,2.4,5.6,5.5,7,9.3c1.4,3.6-0.7,6.5-4.5,6.1c-1.9-0.2-3.9-0.8-5.7-1.3
	c-1.6-0.5-3.1-0.5-4.7-0.1c-2.2,0.5-4.3,1.1-6.5,1.2c-3.5,0.2-5.1-2-3.9-5.3c1.6-4.7,4.5-8.5,9-10.8C17.3,21,18.7,20.8,20,20.4z"/>
<path class="st0" d="M19.2,10.6c-0.1,0.8-0.4,2.1-0.9,3.3c-1.1,2.6-3.8,3.5-6.2,1.9c-0.7-0.4-1.3-1-1.8-1.6c-1.9-2.9-2.5-6-1.6-9.4
	c0.4-1.7,1.4-3,3.3-3.4C13.9,1,15.4,1.7,16.6,3C18.4,5,19.5,7.5,19.2,10.6z"/>
<path class="st0" d="M31.7,7.4c0.2,2.4-0.8,4.6-2.1,6.6c-0.8,1.2-1.8,2-3.2,2.4c-1.6,0.5-3.2,0-4.2-1.4c-2.6-3.5-1.5-10.4,2.1-12.8
	c2.3-1.6,5.4-0.9,6.5,1.7C31.3,5,31.6,6.2,31.7,7.4z"/>
<path class="st0" d="M28.6,21.3c0-4.3,2.2-7.7,5.1-8.7c3.5-1.3,6.6,1,6.2,4.8c-0.3,2.9-1.5,5.2-3.9,6.9c-1.6,1.1-3.3,1.4-5.1,0.5
	C29.3,23.9,28.7,22.3,28.6,21.3z"/>
<path class="st0" d="M0,17c0.1-1.6,0.5-3.4,2.3-4.3c1.8-0.9,3.5-0.5,5.1,0.5c2.6,1.7,4.3,6,3.5,9C10.4,24.8,7.9,26,5.2,25
	C2.4,23.9,0,20.4,0,17z"/>
</svg>
