<?xml version="1.0" encoding="UTF-8" standalone="no"?>
<svg width="21px" height="20px" viewBox="0 0 21 20" version="1.1" xmlns="http://www.w3.org/2000/svg" xmlns:xlink="http://www.w3.org/1999/xlink">
    <!-- Generator: Sketch 3.6.1 (26313) - http://www.bohemiancoding.com/sketch -->
    <title>icn_category_lov-na-blago_default</title>
    <desc>Created with Sketch.</desc>
    <defs></defs>
    <g id="Styleguide" stroke="none" stroke-width="1" fill="none" fill-rule="evenodd">
        <g id="04.02.---UI-elements" transform="translate(-384.000000, -521.000000)" fill="#313943">
            <g id="icn_category_lov-na-blago_default" transform="translate(384.000000, 521.000000)">
                <path d="M18.08604,9.1725 L17.63412,9.1725 C17.56608,8.62166667 17.36532,8.17166667 17.0226,7.84 C16.34892,7.19083333 15.25776,7.075 14.20188,7.08333333 C13.48788,5.00583333 10.96368,5.00583333 10.10604,5.00583333 C9.24924,5.00583333 6.7242,5.00583333 6.0102,7.08333333 C4.96188,7.0725 3.86316,7.19083333 3.18948,7.84 C2.84676,8.17166667 2.646,8.62166667 2.57796,9.1725 L2.12604,9.1725 C1.8942,9.1725 1.70604,9.35916667 1.70604,9.58916667 L1.70604,18.7558333 C1.70604,18.9858333 1.8942,19.1725 2.12604,19.1725 L18.08604,19.1725 C18.31788,19.1725 18.50604,18.9858333 18.50604,18.7558333 L18.50604,9.58916667 C18.50604,9.35916667 18.31788,9.1725 18.08604,9.1725 L18.08604,9.1725 Z M3.77496,8.4375 C4.29828,7.93333333 5.40624,7.89666667 6.31428,7.9225 L6.32604,7.9225 C6.52176,7.9225 6.69228,7.78833333 6.73596,7.5975 C7.01232,6.38166667 8.05224,5.83916667 10.10604,5.83916667 C12.15984,5.83916667 13.19976,6.38166667 13.47612,7.5975 C13.5198,7.78833333 13.69032,7.9225 13.88604,7.9225 L13.8978,7.9225 C14.805,7.89583333 15.9138,7.93333333 16.43712,8.4375 C16.62276,8.61666667 16.737,8.86166667 16.78992,9.1725 L3.42216,9.1725 C3.47508,8.86166667 3.58932,8.61666667 3.77496,8.4375 L3.77496,8.4375 Z M10.52604,11.2558333 L10.52604,12.0891667 C10.52604,12.3191667 10.33788,12.5058333 10.10604,12.5058333 C9.8742,12.5058333 9.68604,12.3191667 9.68604,12.0891667 L9.68604,11.2558333 C9.68604,11.0258333 9.8742,10.8391667 10.10604,10.8391667 C10.33788,10.8391667 10.52604,11.0258333 10.52604,11.2558333 L10.52604,11.2558333 Z M16.82604,17.0891667 C16.82604,17.3191667 16.63788,17.5058333 16.40604,17.5058333 L3.80604,17.5058333 C3.5742,17.5058333 3.38604,17.3191667 3.38604,17.0891667 L3.38604,11.2558333 C3.38604,11.0258333 3.5742,10.8391667 3.80604,10.8391667 L8.42604,10.8391667 C8.65788,10.8391667 8.84604,11.0258333 8.84604,11.2558333 L8.84604,13.3391667 L11.36604,13.3391667 L11.36604,11.2558333 C11.36604,11.0258333 11.5542,10.8391667 11.78604,10.8391667 L16.40604,10.8391667 C16.63788,10.8391667 16.82604,11.0258333 16.82604,11.2558333 L16.82604,17.0891667 L16.82604,17.0891667 Z" id="Fill-2"></path>
                <path d="M12.20604,13.7558333 C12.20604,13.9858333 12.01788,14.1725 11.78604,14.1725 L8.42604,14.1725 C8.1942,14.1725 8.00604,13.9858333 8.00604,13.7558333 L8.00604,11.6725 L4.22604,11.6725 L4.22604,16.6725 L15.98604,16.6725 L15.98604,11.6725 L12.20604,11.6725 L12.20604,13.7558333" id="Fill-1"></path>
                <path d="M1.28604,7.50583333 L0.44604,7.50583333 C0.2142,7.50583333 0.02604,7.6925 0.02604,7.9225 C0.02604,8.1525 0.2142,8.33916667 0.44604,8.33916667 L1.28604,8.33916667 C1.51788,8.33916667 1.70604,8.1525 1.70604,7.9225 C1.70604,7.6925 1.51788,7.50583333 1.28604,7.50583333" id="Fill-3"></path>
                <path d="M4.34952,2.8 C4.431,2.88166667 4.53852,2.9225 4.64604,2.9225 C4.75356,2.9225 4.86108,2.88166667 4.9434,2.8 C5.1072,2.6375 5.1072,2.37416667 4.9434,2.21083333 L4.1034,1.3775 C3.93876,1.215 3.67332,1.215 3.50868,1.3775 C3.34488,1.54083333 3.34488,1.80416667 3.50868,1.96666667 L4.34952,2.8" id="Fill-4"></path>
                <path d="M10.10604,2.08916667 C10.33788,2.08916667 10.52604,1.9025 10.52604,1.6725 L10.52604,0.4225 C10.52604,0.1925 10.33788,0.00583333333 10.10604,0.00583333333 C9.8742,0.00583333333 9.68604,0.1925 9.68604,0.4225 L9.68604,1.6725 C9.68604,1.9025 9.8742,2.08916667 10.10604,2.08916667" id="Fill-5"></path>
                <path d="M15.56604,2.9225 C15.67356,2.9225 15.78108,2.88166667 15.8634,2.8 L16.7034,1.96666667 C16.8672,1.80416667 16.8672,1.54083333 16.7034,1.3775 C16.53876,1.215 16.27332,1.215 16.10952,1.3775 L15.26952,2.21083333 C15.10488,2.37416667 15.10488,2.6375 15.26952,2.8 C15.351,2.88166667 15.45852,2.9225 15.56604,2.9225" id="Fill-6"></path>
                <path d="M19.76604,7.50583333 L18.92604,7.50583333 C18.6942,7.50583333 18.50604,7.6925 18.50604,7.9225 C18.50604,8.1525 18.6942,8.33916667 18.92604,8.33916667 L19.76604,8.33916667 C19.99788,8.33916667 20.18604,8.1525 20.18604,7.9225 C20.18604,7.6925 19.99788,7.50583333 19.76604,7.50583333" id="Fill-7"></path>
            </g>
        </g>
    </g>
</svg>