<?xml version="1.0" encoding="utf-8"?>
<!-- Generator: Adobe Illustrator 21.0.2, SVG Export Plug-In . SVG Version: 6.00 Build 0)  -->
<svg version="1.1" id="Layer_1" xmlns="http://www.w3.org/2000/svg" xmlns:xlink="http://www.w3.org/1999/xlink" x="0px" y="0px"
	 viewBox="0 0 180 180" style="enable-background:new 0 0 180 180;" xml:space="preserve">
<style type="text/css">
	.st0{fill:#FFFFFF;}
</style>
<path class="st0" d="M154.1,73.6L123,42.5c-0.3-0.3-0.7-0.5-1.1-0.5h-6.9l-7.8-7.8l0,0c-0.3-0.3-0.7-0.5-1.1-0.5H73
	c-0.4,0-0.8,0.2-1.1,0.5l0,0l-7.6,7.6h-6.3c-0.4,0-0.8,0.2-1.1,0.5L25.9,73.2c-0.6,0.6-0.6,1.7,0,2.3l19.4,19.4
	c0.6,0.6,1.7,0.6,2.3,0l8.2-8.2v57.9c0,0.9,0.7,1.6,1.6,1.6h29.4V57.7l3.2-3.2l3.2,3.2v88.6h30.8c0.9,0,1.6-0.7,1.6-1.6V85l8.5,8.5
	c0.6,0.6,1.7,0.6,2.3,0l17.6-17.6c0.3-0.3,0.5-0.7,0.5-1.1S154.4,73.9,154.1,73.6z M80.7,57L67,43.6l6-6l14,13L80.7,57z M77.1,37h25
	l-12,12L77.1,37z M99.2,120.9c-1.6,0-2.9-1.3-2.9-2.9c0-1.6,1.3-2.9,2.9-2.9c1.6,0,2.9,1.3,2.9,2.9
	C102.1,119.6,100.8,120.9,99.2,120.9z M99.2,110.6c-1.6,0-2.9-1.3-2.9-2.9c0-1.6,1.3-2.9,2.9-2.9c1.6,0,2.9,1.3,2.9,2.9
	C102.1,109.3,100.8,110.6,99.2,110.6z M99.2,100.3c-1.6,0-2.9-1.3-2.9-2.9c0-1.6,1.3-2.9,2.9-2.9c1.6,0,2.9,1.3,2.9,2.9
	C102.1,99,100.8,100.3,99.2,100.3z M99.2,90c-1.6,0-2.9-1.3-2.9-2.9c0-1.6,1.3-2.9,2.9-2.9c1.6,0,2.9,1.3,2.9,2.9
	C102.1,88.7,100.8,90,99.2,90z M99.2,79.7c-1.6,0-2.9-1.3-2.9-2.9c0-1.6,1.3-2.9,2.9-2.9c1.6,0,2.9,1.3,2.9,2.9
	C102.1,78.4,100.8,79.7,99.2,79.7z M98.3,57l-5.8-5.8L106,37.7l6,6L98.3,57z"/>
</svg>
