<?xml version="1.0" encoding="UTF-8" standalone="no"?>
<svg width="21px" height="20px" viewBox="0 0 21 20" version="1.1" xmlns="http://www.w3.org/2000/svg" xmlns:xlink="http://www.w3.org/1999/xlink">
    <!-- Generator: Sketch 3.6.1 (26313) - http://www.bohemiancoding.com/sketch -->
    <title>icn_category_sport-i-zdravlje_default</title>
    <desc>Created with Sketch.</desc>
    <defs></defs>
    <g id="Styleguide" stroke="none" stroke-width="1" fill="none" fill-rule="evenodd">
        <g id="04.02.---UI-elements" transform="translate(-438.000000, -629.000000)" fill="#313943">
            <g id="icn_category_sport-i-zdravlje_default" transform="translate(438.000000, 629.000000)">
                <path d="M13.33332,14.7316667 C13.11828,15.1583333 12.68652,15.4225 12.20604,15.4225 L12.11028,15.4191667 C11.57604,15.37 11.13672,15.0075 10.99476,14.5166667 L10.20432,11.7733333 L9.55332,13.065 C9.3534,13.4616667 8.95188,13.725 8.50584,13.7533333 L8.4378,13.7558333 L8.43696,13.7558333 C7.9968,13.7558333 7.61628,13.5533333 7.37856,13.2 L6.68556,12.1691667 L6.49404,12.4225 C6.25884,12.7358333 5.88168,12.9225 5.48604,12.9225 L3.27012,12.9225 L3.63552,13.5483333 C3.64392,13.5625 3.65316,13.5758333 3.66324,13.5883333 C6.26976,17.0441667 9.72804,19.335 9.8742,19.4308333 C9.94476,19.4775 10.0254,19.5 10.10604,19.5 C10.19676,19.5 10.28748,19.4708333 10.36308,19.4133333 C10.49412,19.3125 13.59204,16.9158333 16.15488,13.5583333 L16.5522,12.9225 L14.24472,12.9225 L13.33332,14.7316667" id="Fill-1"></path>
                <path d="M1.6884,10.215 L1.80936,10.4225 L4.85604,10.4225 L5.73804,9.25666667 C5.97324,8.94416667 6.3546,8.75583333 6.7578,8.75583333 C7.18536,8.76833333 7.56924,8.97666667 7.7952,9.31333333 L8.2698,10.0208333 L9.39876,7.78 C9.6138,7.35416667 10.04556,7.08916667 10.52688,7.08916667 L10.61928,7.0925 C11.15436,7.14166667 11.59536,7.50333333 11.73732,7.99583333 L12.5496,10.8141667 C12.78396,10.5675 13.11156,10.4225 13.46604,10.4225 L18.11292,10.4225 L18.2364,10.225 C18.2448,10.2116667 18.25236,10.1983333 18.25992,10.1841667 C18.98064,8.6725 19.34604,7.23166667 19.34604,5.90083333 C19.34604,2.30416667 16.98312,0.4225 14.64876,0.4225 C12.915,0.4225 11.00568,1.47166667 10.10604,3.77416667 C9.21984,1.50916667 7.35924,0.475833333 5.67084,0.475833333 C2.51664,0.475833333 0.86604,3.45333333 0.86604,6.39416667 C0.86604,7.61333333 1.134,8.88166667 1.66236,10.1633333 C1.66992,10.1808333 1.67832,10.1983333 1.6884,10.215" id="Fill-2"></path>
                <path d="M19.76604,11.2558333 L13.46604,11.2558333 C13.3056,11.2558333 13.16196,11.3441667 13.09056,11.4866667 L12.31356,13.0291667 L10.93008,8.225 C10.88304,8.06083333 10.7352,7.94 10.56216,7.92416667 L10.5084,7.92166667 C10.36644,7.9225 10.22196,8.01083333 10.15056,8.1525 L8.37396,11.6775 L7.09632,9.775 C7.01904,9.66083333 6.89136,9.59333333 6.74604,9.58916667 C6.62088,9.58916667 6.48732,9.65333333 6.41172,9.755 L5.27604,11.2558333 L0.44604,11.2558333 C0.2142,11.2558333 0.02604,11.4433333 0.02604,11.6725 C0.02604,11.9025 0.2142,12.0891667 0.44604,12.0891667 L5.48604,12.0891667 C5.61792,12.0891667 5.74308,12.0275 5.8212,11.9233333 L6.72672,10.7275 L8.0766,12.7375 C8.15724,12.8566667 8.28072,12.9225 8.4252,12.9225 L8.46636,12.9208333 C8.6016,12.9125 8.73516,12.8241667 8.80152,12.6925 L10.41852,9.48333333 L11.802,14.2875 C11.8482,14.4483333 11.99856,14.5725 12.16656,14.5875 L12.21108,14.5891667 C12.369,14.5875 12.51096,14.5 12.58152,14.3591667 L13.7256,12.0891667 L19.76604,12.0891667 C19.99788,12.0891667 20.18604,11.9025 20.18604,11.6725 C20.18604,11.4433333 19.99788,11.2558333 19.76604,11.2558333" id="Fill-3"></path>
            </g>
        </g>
    </g>
</svg>