<?xml version="1.0" encoding="utf-8"?>
<!-- Generator: Adobe Illustrator 20.0.0, SVG Export Plug-In . SVG Version: 6.00 Build 0)  -->
<svg version="1.1" id="Layer_1" xmlns="http://www.w3.org/2000/svg" xmlns:xlink="http://www.w3.org/1999/xlink" x="0px" y="0px"
	 viewBox="0 0 40 40" style="enable-background:new 0 0 40 40;" xml:space="preserve">
<style type="text/css">
	.st0{fill:#313944;}
</style>
<path class="st0" d="M25.7,7c0,0.6-0.4,1-0.7,1.4c-3.7,4.2-7.5,8.3-11.3,12.5c-1.4,1.6-2.8,3.1-4.2,4.7c-1.3,1.5-2.1,1.5-3.6,0.3
	c-1.7-1.5-3.4-3-5-4.5c-1.1-1-1.2-2-0.2-3.2C5.9,12.4,11.1,6.6,16.4,0.8c0.9-1,2-1.1,2.9-0.2c1.8,1.6,3.6,3.2,5.4,4.9
	C25.1,5.9,25.6,6.4,25.7,7z"/>
<path class="st0" d="M28.4,30.7c1.2-1.3,2.2-2.4,3.3-3.6c2.2,1.9,4.3,3.8,6.4,5.7c0.5,0.4,1,0.8,1.4,1.3c0.7,0.7,0.7,1.6,0.1,2.4
	c-0.2,0.2-0.3,0.4-0.5,0.6c-1.2,1.3-1.9,1.3-3.2,0.2c-2.3-2.1-4.6-4.2-6.9-6.2C28.7,31,28.6,30.9,28.4,30.7z"/>
<path class="st0" d="M2.6,23.4c0.4,0.4,0.8,0.7,1.2,1.1c-0.2,0.2-0.3,0.5-0.5,0.8c1.4,1.3,2.8,2.6,4.3,3.8c0.9,0.7,1.9,0.5,2.8,0.1
	c2.1-0.9,4.2-1.9,6.3-2.8c1.8-0.8,3.5-1.7,5.4-2.3c1.4-0.5,2.9-0.5,4.2,0.6c1.3,1.1,2.7,2.3,4,3.4c-0.4,0.5-0.8,0.8-1.2,1.3
	c-1-0.9-2.1-1.8-3.1-2.8c-1.3-1.3-2.6-1.4-4.2-0.7c-3.4,1.6-6.8,3.1-10.2,4.6c-0.6,0.3-1.2,0.5-1.7,0.6C8.5,31.3,7.2,31,6,30
	c-1.5-1.3-2.9-2.6-4.4-4c-0.6-0.5-0.6-0.9-0.1-1.5C1.9,24.2,2.2,23.8,2.6,23.4z"/>
<path class="st0" d="M21.8,2.6c0.9-0.3,1.3,0,1.2,1C22.5,3.3,22.2,3,21.8,2.6z"/>
</svg>
