<?xml version="1.0" encoding="UTF-8" standalone="no"?>
<svg width="24px" height="24px" viewBox="0 0 24 24" version="1.1" xmlns="http://www.w3.org/2000/svg" xmlns:xlink="http://www.w3.org/1999/xlink">
    <!-- Generator: Sketch 40.1 (33804) - http://www.bohemiancoding.com/sketch -->
    <title>icn_badge_izdvoji-oglas</title>
    <desc>Created with Sketch.</desc>
    <defs></defs>
    <g id="Oglasnik_list-details" stroke="none" stroke-width="1" fill="none" fill-rule="evenodd">
        <g id="05.02_List_categorie_details" transform="translate(-793.000000, -2435.000000)" fill="#009FE3">
            <g id="Group-12" transform="translate(778.000000, 2421.000000)">
                <g id="icn_badge_izdvoji-oglas" transform="translate(15.000000, 14.000000)">
                    <path d="M3.08305,15.0171 L0.06705,20.2316 C-0.02995,20.3996 -0.02145,20.6081 0.08955,20.7671 C0.20005,20.9261 0.39255,21.0086 0.58355,20.9751 L4.02255,20.3926 L5.21555,23.6711 C5.28155,23.8526 5.44655,23.9796 5.63855,23.9976 C5.65405,23.9991 5.67005,24.0001 5.68555,24.0001 C5.86055,24.0001 6.02455,23.9081 6.11505,23.7561 L8.67705,19.4526 C6.33505,18.6681 4.36455,17.0806 3.08305,15.0171" id="Fill-1"></path>
                    <path d="M23.77125,20.2317 L20.83425,15.1532 C19.52625,17.1902 17.54025,18.7497 15.19075,19.5012 L17.72325,23.7557 C17.81375,23.9082 17.97775,24.0002 18.15275,24.0002 C18.16825,24.0002 18.18425,23.9992 18.19975,23.9977 C18.39225,23.9797 18.55675,23.8527 18.62275,23.6707 L19.81575,20.3927 L23.25475,20.9747 C23.44825,21.0082 23.63825,20.9262 23.74925,20.7672 C23.85975,20.6077 23.86825,20.3992 23.77125,20.2317" id="Fill-4"></path>
                    <path d="M16.81225,8.3904 L14.57225,10.1824 L15.48075,13.3624 C15.53775,13.5614 15.46625,13.7754 15.30075,13.8994 C15.21175,13.9664 15.10625,13.9999 15.00025,13.9999 C14.90825,13.9999 14.81625,13.9749 14.73475,13.9239 L12.00025,12.2139 L9.26525,13.9239 C9.08975,14.0334 8.86475,14.0239 8.69925,13.8994 C8.53375,13.7754 8.46225,13.5614 8.51925,13.3624 L9.42775,10.1824 L7.18775,8.3904 C7.02175,8.2579 6.95825,8.0349 7.02825,7.8344 C7.09825,7.6339 7.28775,7.4999 7.50025,7.4999 L10.19075,7.4999 L11.55275,4.7764 C11.72225,4.4374 12.27775,4.4374 12.44725,4.7764 L13.80925,7.4999 L16.50025,7.4999 C16.71225,7.4999 16.90175,7.6339 16.97175,7.8344 C17.04225,8.0349 16.97825,8.2579 16.81225,8.3904 M21.50025,9.4999 C21.50025,4.2619 17.23825,-0.0001 12.00025,-0.0001 C6.76175,-0.0001 2.50025,4.2619 2.50025,9.4999 C2.50025,14.7384 6.76175,18.9999 12.00025,18.9999 C17.23825,18.9999 21.50025,14.7384 21.50025,9.4999" id="Fill-7"></path>
                </g>
            </g>
        </g>
    </g>
</svg>