<?xml version="1.0" encoding="utf-8"?>
<!-- Generator: Adobe Illustrator 21.0.2, SVG Export Plug-In . SVG Version: 6.00 Build 0)  -->
<svg version="1.1" id="Layer_1" xmlns="http://www.w3.org/2000/svg" xmlns:xlink="http://www.w3.org/1999/xlink" x="0px" y="0px"
	 viewBox="0 0 180 180" style="enable-background:new 0 0 180 180;" xml:space="preserve">
<style type="text/css">
	.st0{fill:#FFFFFF;}
</style>
<g id="_x31_1">
	<path class="st0" d="M153.7,78.3L93.9,35.8c-1.2-0.8-2.6-1.2-3.9-1.2c-1.4,0-2.7,0.4-3.9,1.2L26.3,78.3l0.1,16.1l10,0v-8.4L90,47.8
		l53.2,38l0,8.7l10.5,0L153.7,78.3z"/>
	<path class="st0" d="M133.5,36.4l-15.5,0c-1.7,0-3.1,1.4-3.1,3.1V43l21.8,15.3V39.6C136.6,37.8,135.2,36.4,133.5,36.4z"/>
	<path class="st0" d="M137.1,88.8L92.3,57.3c-0.6-0.5-1.5-0.7-2.3-0.7c-0.8,0-1.7,0.2-2.3,0.7L43,89.1l-0.1,53.5
		c0,1.5,1.3,2.8,2.8,2.8h30.4v-44.6h27.8v44.6h30.4c1.5,0,2.8-1.3,2.8-2.8L137.1,88.8z"/>
</g>
</svg>
