<?xml version="1.0" encoding="utf-8"?>
<!-- Generator: Adobe Illustrator 21.0.2, SVG Export Plug-In . SVG Version: 6.00 Build 0)  -->
<svg version="1.1" id="Layer_1" xmlns="http://www.w3.org/2000/svg" xmlns:xlink="http://www.w3.org/1999/xlink" x="0px" y="0px"
	 viewBox="0 0 180 180" style="enable-background:new 0 0 180 180;" xml:space="preserve">
<style type="text/css">
	.st0{fill:#FFFFFF;}
</style>
<path class="st0" d="M84.5,78.6c-1-0.5-0.6-1-0.2-1.7c0.6-1,1.1-2.1,1.7-3.3c-3.5-0.8-5.9-2.7-8-5c-2.4-2.7-2.2-3.7-0.5-6.4
	c1.7-2.5,3.3-5,4.7-7.7c1.5-2.9,3.9-5.4,5.8-8.1c0.5-0.7,0.9-1.3,1.4-2c-0.2,0-0.3,0-0.5,0c-0.2-0.3-0.5-0.5-0.6-0.8
	c-0.3-0.8-0.2-1.9-0.7-2.4c-2.6-2.8-2.1-5.7-0.7-8.8c0.5-1.1,0.5-1.1-0.3-1.4c0.2-0.3,0.4-0.6,0.6-0.8c0,0.1,0.1,0.3,0.2,0.6
	c1.9-2.5,4.4-2.2,7-1.6c1.7,0.3,3.4,0.8,4.9-0.7c0.2-0.2,0.5-0.1,0.9-0.2c0,0.6,0,1.3,0,2c0.1,0,0.3-0.1,0.8-0.3
	c-0.5,0.8-0.9,1.3-1.3,1.9c0.4,0.9,0.9,1.8,1.3,2.7c0.2,0.6,0.2,1.4,0.3,2c0.2,0.7,0.3,1.4,0.6,1.9c0.7,1,0.7,1.7-0.2,2.6
	c-0.3,0.3-0.3,0.9-0.4,1.3c0,0.2,0.1,0.4,0.1,0.6c0.3,2.6-0.1,3.1-2.8,3.1c-0.2,0-0.3,0-0.5,0c-0.4,0.9,0.2,1,0.8,1.3
	c1.3,0.6,2.6,1.2,3.7,2.1c0.5,0.4,1,1.5,0.9,2.2c-0.4,2.3,0.9,4,1.3,6.1c1.9-1,2.2-1.8,1.8-3.8c-0.5-2.4,0.5-4.7,2.5-5.9
	c1.1-0.7,1.5-0.5,2.2,0.6c0.3,0.6,0.9,1.1,1.4,1.6c1.8,1.9,1.9,2.3,0.6,4.6c-0.7,1.2-1.7,2.1-2.4,3.3c-0.9,1.5-1.7,3.1-2.6,4.6
	c-1.2,2.2-2.1,4.7-3.7,6.5c-1.3,1.5-0.9,2.7-0.8,4.2c0.2,1.5,0.4,3,0.4,4.5c0,0.5-0.5,1-1,1.3c0.2,1.8,0.3,3.7,0.6,5.5
	c0.1,0.4,0.5,0.8,0.8,1c2.1,1,4.3,1.8,6.5,2.9c0.5,0.2,0.7,0.9,0.9,1.5c2.9,0.8,5,3,7.4,4.8c0.7,0.5,1.3,1.3,2,1.8
	c2.4,1.7,2.6,4.1,2.2,6.7c-0.1,0.8-0.7,1.7-1.4,2.1c-4.8,2.6-9.5,5.5-14.8,7.1c-2.8,0.8-5.1,2.4-6.9,4.7c-0.3,0.3-0.2,0.9-0.3,1.3
	c-0.2,0.5-0.3,1.1-0.6,1.5c-1.6,1.6-2.4,3.3-1.9,5.6c0.3,1.3,0.5,2.6,0.8,3.8c0.2,0.9,0.6,2-0.5,2.6c-1,0.5-3.2,0-3.6-1
	c-0.7-1.7-1.2-3.6-1.7-5.4c-0.1-0.5,0-1,0-1.5c0-1.6-0.3-3.1-1.2-4.6c-0.8-1.2-1.4-2.8-1.5-4.2c-0.2-2.3,2.1-4.1,4.3-3.6
	c1.1,0.2,2,0,2.8-0.6c2.5-1.7,4.9-3.5,6.5-6.3c0.5-0.8,1.4-1.4,2.2-2c0.5-0.4,1.1-0.5,1.8-0.8c-1.3-0.1-2.5-0.2-3.7-0.3
	c-0.1,0-0.2,0-0.2,0c-1.6,1.5-2.7,0-3.9-0.6c-1.2-0.7-2.3-1.7-3.5-2.5c-2.5,1.7-4.4,3.7-5.4,6.6c-0.2,0.6-0.3,1.5-1.4,1.3
	c-0.2,0-0.5,0.5-0.6,0.8c-1.2,2.7-2.4,5.4-3.7,8.1c-1.8,3.7-4.8,6.1-8.1,8.3c-4.8,3.2-8.5,7.5-11,12.7c-0.3,0.7-0.7,1.4,0,2.2
	c0.3,0.3-0.1,1.2-0.2,1.8c-0.1,0.9-0.2,1.9-0.2,2.8c0,0.4,0.3,0.7,0.3,1.1c-0.1,1.9,0.5,3.3,1.9,4.6c1.1,1,0.7,2.1-0.8,2.3
	c-1.6,0.2-3.3,0.4-4.9,0.2c-2-0.2-3.4-1.8-3.5-4.3c-0.1-2.5-1-4.8-2-7c-0.6-1.2-0.4-2.2,0.4-3.3c0.9-1.4,1.8-2.5,3.6-2.4
	c0.3,0,0.8-0.6,0.9-1.1c1.3-3.1,2.6-6.2,3.8-9.3c0.9-2.2,2.2-4.1,4.1-5.5c1.6-1.2,3-2.4,4.5-3.7c1.5-1.3,2.2-3,2.5-4.9
	c0.4-2.4,1-4.7,1.5-7c0-0.1,0.2-0.3,0.1-0.3c-0.9-1.5,0.6-2.3,0.9-3.5c0.4-1.2,0.7-2.5,0.7-3.7c0-2.5-0.3-5,0.8-7.3
	c0.1-0.3,0.2-0.6,0.2-0.9c0-2.4,0.9-4.4,2.1-6.4C83.4,80.2,83.9,79.5,84.5,78.6z"/>
</svg>
