<?xml version="1.0" encoding="utf-8"?>
<!-- Generator: Adobe Illustrator 21.0.2, SVG Export Plug-In . SVG Version: 6.00 Build 0)  -->
<svg version="1.1" id="Layer_1" xmlns="http://www.w3.org/2000/svg" xmlns:xlink="http://www.w3.org/1999/xlink" x="0px" y="0px"
	 viewBox="0 0 180 180" style="enable-background:new 0 0 180 180;" xml:space="preserve">
<style type="text/css">
	.st0{fill:#FFFFFF;}
</style>
<g id="_x30_2b--Oglasnik_x5F_homepage---Changes">
	<g id="icn_auto-moto">
		<g id="Group-2" transform="translate(1.176471, 10.588235)">
			<path id="Fill-1" class="st0" d="M151.1,97.5h-2.7V80.1c0-6.4-4.9-11.6-10.8-11.6h-6.5L121,47c-0.5-1-1.4-1.6-2.4-1.6H67.2
				c-1,0-2,0.6-2.4,1.6L54.7,68.5h-20c-6,0-10.8,5.2-10.8,11.6v20.3c0,1.6,1.2,2.9,2.7,2.9h7c-0.2-0.9-0.3-1.9-0.3-2.9
				c0-8.8,6.7-15.9,14.9-15.9s14.9,7.1,14.9,15.9c0,1-0.1,2-0.3,2.9h46.6c-0.2-0.9-0.3-1.9-0.3-2.9c0-8.8,6.7-15.9,14.9-15.9
				s14.9,7.1,14.9,15.9c0,1-0.1,2-0.3,2.9h12.4c1.5,0,2.7-1.3,2.7-2.9C153.8,98.8,152.6,97.5,151.1,97.5L151.1,97.5z M80.7,62.8H77
				l-4.7,10c-0.5,1-1.4,1.6-2.4,1.6c-0.4,0-0.8-0.1-1.2-0.3c-1.3-0.7-1.9-2.5-1.2-3.9l5.4-11.6c0.5-1,1.4-1.6,2.4-1.6h5.4
				c1.5,0,2.7,1.3,2.7,2.9C83.4,61.5,82.2,62.8,80.7,62.8L80.7,62.8z"/>
			<path id="Fill-2" class="st0" d="M48.2,87.4c-6.7,0-12.2,5.9-12.2,13c0,7.2,5.5,13,12.2,13s12.2-5.8,12.2-13
				C60.4,93.2,54.9,87.4,48.2,87.4"/>
			<path id="Fill-3" class="st0" d="M124,87.4c-6.7,0-12.2,5.9-12.2,13c0,7.2,5.5,13,12.2,13s12.2-5.8,12.2-13
				C136.2,93.2,130.7,87.4,124,87.4"/>
		</g>
	</g>
</g>
</svg>
